{
  "project_info": {
    "project_number": "501750164003",
    "firebase_url": "https://brank-9c253.firebaseio.com",
    "project_id": "brank-9c253",
    "storage_bucket": "brank-9c253.appspot.com"
  },
  "client": [
    {
      "client_info": {
        "mobilesdk_app_id": "1:501750164003:android:dedc9d15eb1bf685",
        "android_client_info": {
          "package_name": "cl.brank.brank"
        }
      },
      "oauth_client": [
        {
          "client_id": "501750164003-4dsnm69637ckehf5dhpo5adsl7ekrjnc.apps.googleusercontent.com",
          "client_type": 1,
          "android_info": {
            "package_name": "cl.brank.brank",
            "certificate_hash": "85846283BBCE71638F7891BCC046C63B6D0A63E0"
          }
        },
        {
          "client_id": "501750164003-ik079mb8i1ajofn9acjfhsgld93ne88v.apps.googleusercontent.com",
          "client_type": 3
        }
      ],
      "api_key": [
        {
          "current_key": "AIzaSyDSnTjkCxuqpGUvPZRl_JVBYBIbWTR3JgY"
        }
      ],
      "services": {
        "analytics_service": {
          "status": 1
        },
        "appinvite_service": {
          "status": 2,
          "other_platform_oauth_client": [
            {
              "client_id": "501750164003-ik079mb8i1ajofn9acjfhsgld93ne88v.apps.googleusercontent.com",
              "client_type": 3
            }
          ]
        },
        "ads_service": {
          "status": 2
        }
      }
    }
  ],
  "configuration_version": "1"
}